…
Question #5  
Find the 5-minute interval that, on average, contains the maximum number of steps per day.  

```r
filter(dateGroup, steps==max(steps))
```

```
## Source: local data frame [55 x 3]
## Groups: date [53]
## 
##    steps       date interval
##    <int>     <date>    <int>
## 1    117 2012-10-02     2210
## 2    613 2012-10-03      620
## 3    547 2012-10-04     1815
## 4    555 2012-10-05     1210
## 5    526 2012-10-06     1840
## 6    523 2012-10-07     1710
## 7    748 2012-10-09      810
## 8    413 2012-10-10     1205
## 9    748 2012-10-11      825
## 10   802 2012-10-12      900
## # ... with 45 more rows
```
…
